<?xml version="1.0" encoding="utf-8"?>
<!-- Generator: Adobe Illustrator 23.0.2, SVG Export Plug-In . SVG Version: 6.00 Build 0)  -->
<svg version="1.1" id="Capa_1" xmlns="http://www.w3.org/2000/svg" xmlns:xlink="http://www.w3.org/1999/xlink" x="0px" y="0px"
	 viewBox="0 0 512 512" style="enable-background:new 0 0 512 512;" xml:space="preserve">
<style type="text/css">
	.st0{opacity:0.39;fill:#E4367B;}
	.st1{fill:#E4367B;}
</style>
<g>
	<circle class="st0" cx="256" cy="256" r="256"/>
	<path class="st1" d="M112.7,337.2H51.9l-2.4,12.3c-0.8,4.4,0.4,9.1,3.2,12.5s7.3,5.4,11.7,5.4h46.1c-0.6-3.2-0.8-6.6-0.8-10.1
		C109.7,350.3,110.7,343.7,112.7,337.2L112.7,337.2z M327.9,131.4c-2.8-3.6-7-5.6-11.7-5.6H104.7c-7.3,0-13.5,5.2-14.9,12.3
		l-1.4,7.9h46.5c19.3,0,35.2,15.9,35.2,35.3c0,12.9-7,24-17.3,30.2c10.3,6.2,17.3,17.3,17.3,30.2c0,12.9-7,24-17.3,30.2
		c6.2,3.8,11.3,9.5,14.3,16.3c4.2-0.8,8.7-1.2,13.1-1.2c38.9,0,70.5,31.6,70.5,70.5c0,3.4-0.2,6.8-0.8,10.1h20.9
		c7.1,0,13.3-5,14.7-11.9L330.9,144C331.9,139.6,330.9,135,327.9,131.4z"/>
	<path class="st1" d="M396.8,186.1h-43.1c-7.3,0-13.3,5-14.9,11.9l-32.2,151.1c-1,4.4,0,9.1,3,12.7c2.8,3.6,7.1,5.6,11.7,5.6h10.9
		c-0.6-3.2-0.8-6.6-0.8-10.1c0-38.9,31.6-70.5,70.5-70.5s70.5,31.6,70.5,70.5c0,2.2,0,4.2-0.4,6.4c2.6-2,4.4-4.8,5-8.3L492,285
		c0.2-1,0.4-2.2,0.4-3.2C492.4,229,449.5,186.1,396.8,186.1z"/>
	<path class="st1" d="M134.9,196.2H64.4c-8.3,0-15.1-6.8-15.1-15.1c0-8.3,6.8-15.1,15.1-15.1h70.5c8.3,0,15.1,6.8,15.1,15.1
		C150,189.4,143.2,196.2,134.9,196.2z"/>
	<path class="st1" d="M134.9,256.6H44.2c-8.3,0-15.1-6.8-15.1-15.1c0-8.3,6.8-15.1,15.1-15.1h90.6c8.3,0,15.1,6.8,15.1,15.1
		C150,249.9,143.2,256.6,134.9,256.6z"/>
	<path class="st1" d="M134.9,317.1H24.1C15.8,317.1,9,310.3,9,302c0-8.3,6.8-15.1,15.1-15.1h110.8c8.3,0,15.1,6.8,15.1,15.1
		C150,310.3,143.2,317.1,134.9,317.1z"/>
	<path class="st1" d="M401.8,407.7c-27.8,0-50.4-22.6-50.4-50.4c0-27.8,22.6-50.4,50.4-50.4c27.8,0,50.4,22.6,50.4,50.4
		C452.1,385.1,429.5,407.7,401.8,407.7z"/>
	<path class="st1" d="M180.2,407.7c-27.8,0-50.4-22.6-50.4-50.4c0-27.8,22.6-50.4,50.4-50.4s50.4,22.6,50.4,50.4
		C230.6,385.1,208,407.7,180.2,407.7z"/>
</g>
</svg>
