<?xml version="1.0" encoding="utf-8"?>
<!-- Generator: Adobe Illustrator 23.0.2, SVG Export Plug-In . SVG Version: 6.00 Build 0)  -->
<svg version="1.1" id="Capa_1" xmlns="http://www.w3.org/2000/svg" xmlns:xlink="http://www.w3.org/1999/xlink" x="0px" y="0px"
	 viewBox="0 0 512 512" style="enable-background:new 0 0 512 512;" xml:space="preserve">
<style type="text/css">
	.st0{opacity:0.39;fill:#E4367B;enable-background:new    ;}
	.st1{fill:#E4367B;}
</style>
<g>
	<circle class="st0" cx="256" cy="256" r="256"/>
</g>
<g>
	<g>
		<g>
			<path class="st1" d="M232.7,366.5c-16,14.8-38.1,18.1-57.7,8.6c-7.1-3.4-13.1-8.1-17.8-13.8l-26.7,59.1c-1.2,2.7,0.1,4.7,0.8,5.5
				c0.6,0.7,2.4,2.4,5.3,1.6l19.4-5.4c2.2-0.6,4.5-0.9,6.7-0.9c9.3,0,18.1,5.3,22.3,14l8.8,18.2c1.3,2.7,3.7,2.9,4.7,2.9
				c1,0,3.4-0.3,4.6-3l42.5-93.9C240.9,360.6,236.5,363.1,232.7,366.5z"/>
		</g>
	</g>
	<g>
		<g>
			<path class="st1" d="M381.4,420.4l-26.7-59.1c-4.7,5.6-10.7,10.4-17.8,13.8c-19.6,9.4-41.7,6.1-57.7-8.6
				c-3.8-3.5-8.2-5.9-12.8-7.2l42.5,93.9c1.2,2.7,3.6,3,4.6,3c1,0,3.4-0.2,4.7-2.9l8.8-18.2c4.2-8.7,13-14,22.3-14
				c2.2,0,4.4,0.3,6.7,0.9l19.4,5.4c2.8,0.8,4.6-0.9,5.3-1.6C381.3,425.2,382.6,423.1,381.4,420.4z"/>
		</g>
	</g>
	<g>
		<g>
			<path class="st1" d="M402.4,212.7c-22.2-15.2-29.1-45.3-15.7-68.6c8-14,3.9-27.8-2.7-36.1c-6.6-8.3-19.2-15.4-34.6-10.7
				c-25.7,7.9-53.6-5.5-63.4-30.5c-5.9-15-19.4-20.4-30-20.4c-10.6,0-24,5.4-30,20.4c-9.9,25-37.7,38.4-63.4,30.5
				c-15.4-4.7-28,2.4-34.6,10.7c-6.6,8.3-10.8,22.1-2.7,36.1c13.4,23.3,6.5,53.4-15.7,68.6c-13.3,9.1-15.6,23.4-13.2,33.7
				c2.4,10.3,10.6,22.2,26.5,24.7c26.6,4.1,45.8,28.2,43.9,55c-1.2,16.1,8.6,26.8,18.1,31.4c9.5,4.6,24,5.6,35.8-5.4
				c9.9-9.1,22.5-13.7,35.2-13.7c12.7,0,25.3,4.6,35.2,13.7c11.9,11,26.3,10,35.8,5.4c9.5-4.6,19.3-15.2,18.1-31.4
				c-2-26.8,17.3-51,43.9-55c16-2.4,24.2-14.3,26.5-24.7C418,236.1,415.7,221.8,402.4,212.7z M256,315.3
				c-58.1,0-105.4-47.3-105.4-105.4S197.9,104.5,256,104.5s105.4,47.3,105.4,105.4C361.4,268,314.1,315.3,256,315.3z"/>
		</g>
	</g>
	<g>
		<g>
			<path class="st1" d="M256,124.1c-47.3,0-85.7,38.5-85.7,85.7s38.5,85.7,85.7,85.7s85.7-38.5,85.7-85.7S303.3,124.1,256,124.1z
				 M299.9,201.5l-53.4,39c-1.7,1.2-3.7,1.9-5.8,1.9c-0.5,0-1.1,0-1.6-0.1c-2.6-0.4-4.9-1.9-6.4-4l-16-22.7
				c-3.1-4.4-2-10.6,2.4-13.7c4.4-3.1,10.6-2,13.7,2.4l10.2,14.5l45.3-33.1c4.4-3.2,10.5-2.2,13.7,2.1
				C305.3,192.2,304.3,198.3,299.9,201.5z"/>
		</g>
	</g>
</g>
</svg>
